^C:\_DOCUMENTS\_DOCUMENTS\_LEETCODEPROJECTS\LEETCODEPROJECTS\COMPAREVERSIONNUMBER\DEBUG\COMPAREVERSIONNUMBER.EXE.EMBED.MANIFEST.RES|C:\_DOCUMENTS\_DOCUMENTS\_LEETCODEPROJECTS\LEETCODEPROJECTS\COMPAREVERSIONNUMBER\DEBUG\MAIN.OBJ
C:\_DOCUMENTS\_DOCUMENTS\_LEETCODEPROJECTS\LEETCODEPROJECTS\DEBUG\COMPAREVERSIONNUMBER.ILK
C:\_DOCUMENTS\_DOCUMENTS\_LEETCODEPROJECTS\LEETCODEPROJECTS\DEBUG\COMPAREVERSIONNUMBER.EXE
C:\_DOCUMENTS\_DOCUMENTS\_LEETCODEPROJECTS\LEETCODEPROJECTS\COMPAREVERSIONNUMBER\DEBUG\COMPAREVERSIONNUMBER.EXE.INTERMEDIATE.MANIFEST
C:\_DOCUMENTS\_DOCUMENTS\_LEETCODEPROJECTS\LEETCODEPROJECTS\DEBUG\COMPAREVERSIONNUMBER.PDB
