^C:\_DOCUMENTS\_DOCUMENTS\_LEETCODEPROJECTS\LEETCODEPROJECTS\REMOVENTHNODEFROMENDOFLIST\DEBUG\MAIN.OBJ|C:\_DOCUMENTS\_DOCUMENTS\_LEETCODEPROJECTS\LEETCODEPROJECTS\REMOVENTHNODEFROMENDOFLIST\DEBUG\REMOVENTHNODEFROMENDOFLIST.EXE.EMBED.MANIFEST.RES
C:\_DOCUMENTS\_DOCUMENTS\_LEETCODEPROJECTS\LEETCODEPROJECTS\DEBUG\REMOVENTHNODEFROMENDOFLIST.ILK
C:\_DOCUMENTS\_DOCUMENTS\_LEETCODEPROJECTS\LEETCODEPROJECTS\DEBUG\REMOVENTHNODEFROMENDOFLIST.EXE
C:\_DOCUMENTS\_DOCUMENTS\_LEETCODEPROJECTS\LEETCODEPROJECTS\REMOVENTHNODEFROMENDOFLIST\DEBUG\REMOVENTHNODEFROMENDOFLIST.EXE.INTERMEDIATE.MANIFEST
C:\_DOCUMENTS\_DOCUMENTS\_LEETCODEPROJECTS\LEETCODEPROJECTS\DEBUG\REMOVENTHNODEFROMENDOFLIST.PDB
