^C:\_DOCUMENTS\_DOCUMENTS\_LEETCODEPROJECTS\LEETCODEPROJECTS\VALIDSUDOKU\DEBUG\MAIN.OBJ|C:\_DOCUMENTS\_DOCUMENTS\_LEETCODEPROJECTS\LEETCODEPROJECTS\VALIDSUDOKU\DEBUG\VALIDSUDOKU.EXE.EMBED.MANIFEST.RES
/ERRORREPORT:PROMPT /OUT:"C:\_Documents\_Documents\_LeetCodeProjects\LeetCodeProjects\Debug\ValidSudoku.exe" /INCREMENTAL /NOLOGO kernel32.lib user32.lib gdi32.lib winspool.lib comdlg32.lib advapi32.lib shell32.lib ole32.lib oleaut32.lib uuid.lib odbc32.lib odbccp32.lib /MANIFEST /ManifestFile:"Debug\ValidSudoku.exe.intermediate.manifest" /MANIFESTUAC:"level='asInvoker' uiAccess='false'" /DEBUG /PDB:"C:\_Documents\_Documents\_LeetCodeProjects\LeetCodeProjects\Debug\ValidSudoku.pdb" /SUBSYSTEM:CONSOLE /TLBID:1 /DYNAMICBASE /NXCOMPAT /IMPLIB:"C:\_Documents\_Documents\_LeetCodeProjects\LeetCodeProjects\Debug\ValidSudoku.lib" /MACHINE:X86 Debug\ValidSudoku.exe.embed.manifest.res
Debug\main.obj
