^C:\_DOCUMENTS\_DOCUMENTS\_LEETCODEPROJECTS\LEETCODEPROJECTS\FRACTIONTORECURRINGDECIMAL\DEBUG\FRACTIONTORECURRINGDECIMAL.EXE.EMBED.MANIFEST.RES|C:\_DOCUMENTS\_DOCUMENTS\_LEETCODEPROJECTS\LEETCODEPROJECTS\FRACTIONTORECURRINGDECIMAL\DEBUG\MAIN.OBJ
C:\_DOCUMENTS\_DOCUMENTS\_LEETCODEPROJECTS\LEETCODEPROJECTS\DEBUG\FRACTIONTORECURRINGDECIMAL.ILK
C:\_DOCUMENTS\_DOCUMENTS\_LEETCODEPROJECTS\LEETCODEPROJECTS\DEBUG\FRACTIONTORECURRINGDECIMAL.EXE
C:\_DOCUMENTS\_DOCUMENTS\_LEETCODEPROJECTS\LEETCODEPROJECTS\FRACTIONTORECURRINGDECIMAL\DEBUG\FRACTIONTORECURRINGDECIMAL.EXE.INTERMEDIATE.MANIFEST
C:\_DOCUMENTS\_DOCUMENTS\_LEETCODEPROJECTS\LEETCODEPROJECTS\DEBUG\FRACTIONTORECURRINGDECIMAL.PDB
