^C:\_DOCUMENTS\_DOCUMENTS\_LEETCODEPROJECTS\LEETCODEPROJECTS\EDITDISTANCE\MAIN.CPP
C:\_DOCUMENTS\_DOCUMENTS\_LEETCODEPROJECTS\LEETCODEPROJECTS\EDITDISTANCE\DEBUG\MAIN.OBJ
C:\_DOCUMENTS\_DOCUMENTS\_LEETCODEPROJECTS\LEETCODEPROJECTS\EDITDISTANCE\DEBUG\VC100.PDB
