^C:\_DOCUMENTS\_DOCUMENTS\_LEETCODEPROJECTS\LEETCODEPROJECTS\CONVERTBINARYTREEFROMPREORDERANDINORDERTRAVERSAL\MAIN.CPP
C:\_DOCUMENTS\_DOCUMENTS\_LEETCODEPROJECTS\LEETCODEPROJECTS\CONVERTBINARYTREEFROMPREORDERANDINORDERTRAVERSAL\DEBUG\MAIN.OBJ
C:\_DOCUMENTS\_DOCUMENTS\_LEETCODEPROJECTS\LEETCODEPROJECTS\CONVERTBINARYTREEFROMPREORDERANDINORDERTRAVERSAL\DEBUG\VC100.PDB
