^C:\_DOCUMENTS\_DOCUMENTS\_LEETCODEPROJECTS\LEETCODEPROJECTS\FACTORIALTRAILINGZEROES\DEBUG\FACTORIALTRAILINGZEROES.EXE.EMBED.MANIFEST.RES|C:\_DOCUMENTS\_DOCUMENTS\_LEETCODEPROJECTS\LEETCODEPROJECTS\FACTORIALTRAILINGZEROES\DEBUG\MAIN.OBJ
C:\_DOCUMENTS\_DOCUMENTS\_LEETCODEPROJECTS\LEETCODEPROJECTS\DEBUG\FACTORIALTRAILINGZEROES.ILK
C:\_DOCUMENTS\_DOCUMENTS\_LEETCODEPROJECTS\LEETCODEPROJECTS\DEBUG\FACTORIALTRAILINGZEROES.EXE
C:\_DOCUMENTS\_DOCUMENTS\_LEETCODEPROJECTS\LEETCODEPROJECTS\FACTORIALTRAILINGZEROES\DEBUG\FACTORIALTRAILINGZEROES.EXE.INTERMEDIATE.MANIFEST
C:\_DOCUMENTS\_DOCUMENTS\_LEETCODEPROJECTS\LEETCODEPROJECTS\DEBUG\FACTORIALTRAILINGZEROES.PDB
