^C:\_DOCUMENTS\_DOCUMENTS\_LEETCODEPROJECTS\LEETCODEPROJECTS\MAXIMUMPRODUCTSUBARRAY\MAIN.CPP
C:\_DOCUMENTS\_DOCUMENTS\_LEETCODEPROJECTS\LEETCODEPROJECTS\MAXIMUMPRODUCTSUBARRAY\DEBUG\MAIN.OBJ
C:\_DOCUMENTS\_DOCUMENTS\_LEETCODEPROJECTS\LEETCODEPROJECTS\MAXIMUMPRODUCTSUBARRAY\DEBUG\VC100.PDB
