^C:\_DOCUMENTS\_DOCUMENTS\_LEETCODEPROJECTS\LEETCODEPROJECTS\FLATTENBINARYTREETOLINKEDLIST\DEBUG\FLATTENBINARYTREETOLINKEDLIST.EXE.EMBED.MANIFEST.RES|C:\_DOCUMENTS\_DOCUMENTS\_LEETCODEPROJECTS\LEETCODEPROJECTS\FLATTENBINARYTREETOLINKEDLIST\DEBUG\MAIN.OBJ
C:\_DOCUMENTS\_DOCUMENTS\_LEETCODEPROJECTS\LEETCODEPROJECTS\DEBUG\FLATTENBINARYTREETOLINKEDLIST.ILK
C:\_DOCUMENTS\_DOCUMENTS\_LEETCODEPROJECTS\LEETCODEPROJECTS\DEBUG\FLATTENBINARYTREETOLINKEDLIST.EXE
C:\_DOCUMENTS\_DOCUMENTS\_LEETCODEPROJECTS\LEETCODEPROJECTS\FLATTENBINARYTREETOLINKEDLIST\DEBUG\FLATTENBINARYTREETOLINKEDLIST.EXE.INTERMEDIATE.MANIFEST
C:\_DOCUMENTS\_DOCUMENTS\_LEETCODEPROJECTS\LEETCODEPROJECTS\DEBUG\FLATTENBINARYTREETOLINKEDLIST.PDB
