^C:\_DOCUMENTS\_DOCUMENTS\_LEETCODEPROJECTS\LEETCODEPROJECTS\MAJORITY ELEMENT\MAIN.CPP
C:\_SOFTWAREROOTS\MICROSOFT VISUAL STUDIO 10.0\VC\BIN\1033\CLUI.DLL
C:\WINDOWS\GLOBALIZATION\SORTING\SORTDEFAULT.NLS
C:\WINDOWS\SYSTEM32\RSAENH.DLL
C:\_SOFTWAREROOTS\MICROSOFT VISUAL STUDIO 10.0\COMMON7\IDE\MSPDBSRV.EXE
C:\WINDOWS\SYSTEM32\TZRES.DLL
C:\_DOCUMENTS\_DOCUMENTS\_LEETCODEPROJECTS\LEETCODEPROJECTS\MAJORITY ELEMENT\SOLUTION.H
C:\_SOFTWAREROOTS\MICROSOFT VISUAL STUDIO 10.0\VC\INCLUDE\ALGORITHM
C:\_SOFTWAREROOTS\MICROSOFT VISUAL STUDIO 10.0\VC\INCLUDE\MEMORY
C:\_SOFTWAREROOTS\MICROSOFT VISUAL STUDIO 10.0\VC\INCLUDE\XMEMORY
C:\_SOFTWAREROOTS\MICROSOFT VISUAL STUDIO 10.0\VC\INCLUDE\CSTDLIB
C:\_SOFTWAREROOTS\MICROSOFT VISUAL STUDIO 10.0\VC\INCLUDE\YVALS.H
C:\_SOFTWAREROOTS\MICROSOFT VISUAL STUDIO 10.0\VC\INCLUDE\CRTDEFS.H
C:\_SOFTWAREROOTS\MICROSOFT VISUAL STUDIO 10.0\VC\INCLUDE\SAL.H
C:\_SOFTWAREROOTS\MICROSOFT VISUAL STUDIO 10.0\VC\INCLUDE\CODEANALYSIS\SOURCEANNOTATIONS.H
C:\_SOFTWAREROOTS\MICROSOFT VISUAL STUDIO 10.0\VC\INCLUDE\VADEFS.H
C:\_SOFTWAREROOTS\MICROSOFT VISUAL STUDIO 10.0\VC\INCLUDE\USE_ANSI.H
C:\_SOFTWAREROOTS\MICROSOFT VISUAL STUDIO 10.0\VC\INCLUDE\STDLIB.H
C:\_SOFTWAREROOTS\MICROSOFT VISUAL STUDIO 10.0\VC\INCLUDE\LIMITS.H
C:\_SOFTWAREROOTS\MICROSOFT VISUAL STUDIO 10.0\VC\INCLUDE\NEW
C:\_SOFTWAREROOTS\MICROSOFT VISUAL STUDIO 10.0\VC\INCLUDE\EXCEPTION
C:\_SOFTWAREROOTS\MICROSOFT VISUAL STUDIO 10.0\VC\INCLUDE\XSTDDEF
C:\_SOFTWAREROOTS\MICROSOFT VISUAL STUDIO 10.0\VC\INCLUDE\CSTDDEF
C:\_SOFTWAREROOTS\MICROSOFT VISUAL STUDIO 10.0\VC\INCLUDE\STDDEF.H
C:\_SOFTWAREROOTS\MICROSOFT VISUAL STUDIO 10.0\VC\INCLUDE\EH.H
C:\_SOFTWAREROOTS\MICROSOFT VISUAL STUDIO 10.0\VC\INCLUDE\MALLOC.H
C:\_SOFTWAREROOTS\MICROSOFT VISUAL STUDIO 10.0\VC\INCLUDE\STRING.H
C:\_SOFTWAREROOTS\MICROSOFT VISUAL STUDIO 10.0\VC\INCLUDE\XUTILITY
C:\_SOFTWAREROOTS\MICROSOFT VISUAL STUDIO 10.0\VC\INCLUDE\CLIMITS
C:\_SOFTWAREROOTS\MICROSOFT VISUAL STUDIO 10.0\VC\INCLUDE\UTILITY
C:\_SOFTWAREROOTS\MICROSOFT VISUAL STUDIO 10.0\VC\INCLUDE\IOSFWD
C:\_SOFTWAREROOTS\MICROSOFT VISUAL STUDIO 10.0\VC\INCLUDE\CSTDIO
C:\_SOFTWAREROOTS\MICROSOFT VISUAL STUDIO 10.0\VC\INCLUDE\STDIO.H
C:\_SOFTWAREROOTS\MICROSOFT VISUAL STUDIO 10.0\VC\INCLUDE\SWPRINTF.INL
C:\_SOFTWAREROOTS\MICROSOFT VISUAL STUDIO 10.0\VC\INCLUDE\CSTRING
C:\_SOFTWAREROOTS\MICROSOFT VISUAL STUDIO 10.0\VC\INCLUDE\CWCHAR
C:\_SOFTWAREROOTS\MICROSOFT VISUAL STUDIO 10.0\VC\INCLUDE\WCHAR.H
C:\_SOFTWAREROOTS\MICROSOFT VISUAL STUDIO 10.0\VC\INCLUDE\WTIME.INL
C:\_SOFTWAREROOTS\MICROSOFT VISUAL STUDIO 10.0\VC\INCLUDE\CRTDBG.H
C:\_SOFTWAREROOTS\MICROSOFT VISUAL STUDIO 10.0\VC\INCLUDE\TYPE_TRAITS
C:\_SOFTWAREROOTS\MICROSOFT VISUAL STUDIO 10.0\VC\INCLUDE\LIMITS
C:\_SOFTWAREROOTS\MICROSOFT VISUAL STUDIO 10.0\VC\INCLUDE\YMATH.H
C:\_SOFTWAREROOTS\MICROSOFT VISUAL STUDIO 10.0\VC\INCLUDE\CFLOAT
C:\_SOFTWAREROOTS\MICROSOFT VISUAL STUDIO 10.0\VC\INCLUDE\FLOAT.H
C:\_SOFTWAREROOTS\MICROSOFT VISUAL STUDIO 10.0\VC\INCLUDE\CRTWRN.H
C:\_SOFTWAREROOTS\MICROSOFT VISUAL STUDIO 10.0\VC\INCLUDE\CMATH
C:\_SOFTWAREROOTS\MICROSOFT VISUAL STUDIO 10.0\VC\INCLUDE\MATH.H
C:\_SOFTWAREROOTS\MICROSOFT VISUAL STUDIO 10.0\VC\INCLUDE\XTR1COMMON
C:\_SOFTWAREROOTS\MICROSOFT VISUAL STUDIO 10.0\VC\INCLUDE\XFWRAP
C:\_SOFTWAREROOTS\MICROSOFT VISUAL STUDIO 10.0\VC\INCLUDE\XFWRAP1
C:\_SOFTWAREROOTS\MICROSOFT VISUAL STUDIO 10.0\VC\INCLUDE\XXTYPE_TRAITS
C:\_SOFTWAREROOTS\MICROSOFT VISUAL STUDIO 10.0\VC\INCLUDE\TYPEINFO
C:\_SOFTWAREROOTS\MICROSOFT VISUAL STUDIO 10.0\VC\INCLUDE\INTRIN.H
C:\_SOFTWAREROOTS\MICROSOFT VISUAL STUDIO 10.0\VC\INCLUDE\SETJMP.H
C:\_SOFTWAREROOTS\MICROSOFT VISUAL STUDIO 10.0\VC\INCLUDE\IMMINTRIN.H
C:\_SOFTWAREROOTS\MICROSOFT VISUAL STUDIO 10.0\VC\INCLUDE\WMMINTRIN.H
C:\_SOFTWAREROOTS\MICROSOFT VISUAL STUDIO 10.0\VC\INCLUDE\NMMINTRIN.H
C:\_SOFTWAREROOTS\MICROSOFT VISUAL STUDIO 10.0\VC\INCLUDE\SMMINTRIN.H
C:\_SOFTWAREROOTS\MICROSOFT VISUAL STUDIO 10.0\VC\INCLUDE\TMMINTRIN.H
C:\_SOFTWAREROOTS\MICROSOFT VISUAL STUDIO 10.0\VC\INCLUDE\PMMINTRIN.H
C:\_SOFTWAREROOTS\MICROSOFT VISUAL STUDIO 10.0\VC\INCLUDE\EMMINTRIN.H
C:\_SOFTWAREROOTS\MICROSOFT VISUAL STUDIO 10.0\VC\INCLUDE\XMMINTRIN.H
C:\_SOFTWAREROOTS\MICROSOFT VISUAL STUDIO 10.0\VC\INCLUDE\MMINTRIN.H
C:\_SOFTWAREROOTS\MICROSOFT VISUAL STUDIO 10.0\VC\INCLUDE\AMMINTRIN.H
C:\_SOFTWAREROOTS\MICROSOFT VISUAL STUDIO 10.0\VC\INCLUDE\MM3DNOW.H
C:\_SOFTWAREROOTS\MICROSOFT VISUAL STUDIO 10.0\VC\INCLUDE\XXSHARED
C:\_SOFTWAREROOTS\MICROSOFT VISUAL STUDIO 10.0\VC\INCLUDE\VECTOR
C:\_SOFTWAREROOTS\MICROSOFT VISUAL STUDIO 10.0\VC\INCLUDE\STDEXCEPT
C:\_SOFTWAREROOTS\MICROSOFT VISUAL STUDIO 10.0\VC\INCLUDE\XSTRING
C:\_SOFTWAREROOTS\MICROSOFT VISUAL STUDIO 10.0\VC\INCLUDE\XFUNCTIONAL
