^C:\_DOCUMENTS\_DOCUMENTS\_LEETCODEPROJECTS\LEETCODEPROJECTS\CONSTRUCTBINARYTREEFROMINORDERANDPOSTORDERTRAVERSAL\MAIN.CPP
C:\_DOCUMENTS\_DOCUMENTS\_LEETCODEPROJECTS\LEETCODEPROJECTS\CONSTRUCTBINARYTREEFROMINORDERANDPOSTORDERTRAVERSAL\DEBUG\MAIN.OBJ
C:\_DOCUMENTS\_DOCUMENTS\_LEETCODEPROJECTS\LEETCODEPROJECTS\CONSTRUCTBINARYTREEFROMINORDERANDPOSTORDERTRAVERSAL\DEBUG\VC100.PDB
