^C:\_DOCUMENTS\_DOCUMENTS\_LEETCODEPROJECTS\LEETCODEPROJECTS\BINARYTREEZIGZAGLEVELORDERTRAVERSAL\DEBUG\BINARYTREEZIGZAGLEVELORDERTRAVERSAL.EXE.EMBED.MANIFEST.RES|C:\_DOCUMENTS\_DOCUMENTS\_LEETCODEPROJECTS\LEETCODEPROJECTS\BINARYTREEZIGZAGLEVELORDERTRAVERSAL\DEBUG\MAIN.OBJ
C:\_DOCUMENTS\_DOCUMENTS\_LEETCODEPROJECTS\LEETCODEPROJECTS\DEBUG\BINARYTREEZIGZAGLEVELORDERTRAVERSAL.ILK
C:\_DOCUMENTS\_DOCUMENTS\_LEETCODEPROJECTS\LEETCODEPROJECTS\DEBUG\BINARYTREEZIGZAGLEVELORDERTRAVERSAL.EXE
C:\_DOCUMENTS\_DOCUMENTS\_LEETCODEPROJECTS\LEETCODEPROJECTS\BINARYTREEZIGZAGLEVELORDERTRAVERSAL\DEBUG\BINARYTREEZIGZAGLEVELORDERTRAVERSAL.EXE.INTERMEDIATE.MANIFEST
C:\_DOCUMENTS\_DOCUMENTS\_LEETCODEPROJECTS\LEETCODEPROJECTS\DEBUG\BINARYTREEZIGZAGLEVELORDERTRAVERSAL.PDB
