^C:\_DOCUMENTS\_DOCUMENTS\_LEETCODEPROJECTS\LEETCODEPROJECTS\PLUSONE\MAIN.CPP
C:\_DOCUMENTS\_DOCUMENTS\_LEETCODEPROJECTS\LEETCODEPROJECTS\PLUSONE\DEBUG\MAIN.OBJ
C:\_DOCUMENTS\_DOCUMENTS\_LEETCODEPROJECTS\LEETCODEPROJECTS\PLUSONE\DEBUG\VC100.PDB
