^C:\_DOCUMENTS\_DOCUMENTS\_LEETCODEPROJECTS\LEETCODEPROJECTS\3SUMCLOSEST\DEBUG\3SUMCLOSEST.EXE.EMBED.MANIFEST.RES|C:\_DOCUMENTS\_DOCUMENTS\_LEETCODEPROJECTS\LEETCODEPROJECTS\3SUMCLOSEST\DEBUG\MAIN.OBJ
/ERRORREPORT:PROMPT /OUT:"C:\_Documents\_Documents\_LeetCodeProjects\LeetCodeProjects\Debug\3SumClosest.exe" /INCREMENTAL /NOLOGO kernel32.lib user32.lib gdi32.lib winspool.lib comdlg32.lib advapi32.lib shell32.lib ole32.lib oleaut32.lib uuid.lib odbc32.lib odbccp32.lib /MANIFEST /ManifestFile:"Debug\3SumClosest.exe.intermediate.manifest" /MANIFESTUAC:"level='asInvoker' uiAccess='false'" /DEBUG /PDB:"C:\_Documents\_Documents\_LeetCodeProjects\LeetCodeProjects\Debug\3SumClosest.pdb" /SUBSYSTEM:CONSOLE /TLBID:1 /DYNAMICBASE /NXCOMPAT /IMPLIB:"C:\_Documents\_Documents\_LeetCodeProjects\LeetCodeProjects\Debug\3SumClosest.lib" /MACHINE:X86 Debug\3SumClosest.exe.embed.manifest.res
Debug\main.obj
