^C:\_DOCUMENTS\_DOCUMENTS\_LEETCODEPROJECTS\LEETCODEPROJECTS\EXCELSHEETCOLUMNNUMBER\MAIN.CPP
C:\_DOCUMENTS\_DOCUMENTS\_LEETCODEPROJECTS\LEETCODEPROJECTS\EXCELSHEETCOLUMNNUMBER\DEBUG\MAIN.OBJ
C:\_DOCUMENTS\_DOCUMENTS\_LEETCODEPROJECTS\LEETCODEPROJECTS\EXCELSHEETCOLUMNNUMBER\DEBUG\VC100.PDB
